{
    "doctors": [
        {
            "id": 24253,
            "entity_name": "El Safa Clinics - Sheikh Zayed",
            "full_name": "Taher El Zanaty",
            "individual_id": "23645",
            "speciality": "Internal Medicine",
            "entity_id": 608,
            "avatar": "https://nabdanet-staging.s3.amazonaws.com/uploads/individuals/23645/avatar/1573556613_Taher_El_Zanaty.jpg"
        },
        {
            "id": 23832,
            "entity_name": "El Safa Clinics - Mohandessin",
            "full_name": "Mohsen Soliman",
            "individual_id": "23228",
            "speciality": "Dermatology",
            "entity_id": 604,
            "avatar": "https://nabdanet-staging.s3.amazonaws.com/uploads/individuals/23228/avatar/1582551341_mohsen_soliman.jpg"
        },
        {
            "id": 23775,
            "entity_name": "El Safa Clinics - Sheikh Zayed",
            "full_name": "Hesham Negm",
            "individual_id": "23167",
            "speciality": "Ear, Nose \u0026 Throat",
            "entity_id": 608,
            "avatar": "https://nabdanet-staging.s3.amazonaws.com/uploads/individuals/23167/avatar/1575931886_hesham_negm.jpg"
        },
        {
            "id": 23841,
            "entity_name": "El Safa Hospital - Dr. Samir Talaat",
            "full_name": "Rehab Hegazy",
            "individual_id": "23232",
            "speciality": "Dermatology",
            "entity_id": 609,
            "avatar": "https://nabdanet-staging.s3.amazonaws.com/uploads/individuals/23232/avatar/1582551397_rehab--aly-hegazy--dermatology_20191013155706073.jpg"
        }
    ],
    "events": [
        {
            "id": 4472,
            "name": "",
            "start_at": "2020-02-24T17:00:00.000+02:00",
            "end_at": "2020-02-24T19:00:00.000+02:00",
            "created_at": "2020-02-23T15:17:13.000+02:00",
            "updated_at": "2020-02-23T15:17:13.000+02:00",
            "entity_id": 608,
            "individual_id": 23645,
            "created_by": "اسلام القاضى",
            "time_from": null,
            "time_to": null,
            "current_reservations_no": 0,
            "max_reservations_no": "21",
            "occurance_id": "4471",
            "no_of_patients": "",
            "time_slot_interval": "",
            "repeatition_interval": null,
            "repeating_until_date": null,
            "time_slots_count": null,
            "repetition_interval_no": null,
            "is_public": true
        },
        {
            "id": 4473,
            "name": "",
            "start_at": "2020-02-25T17:00:00.000+02:00",
            "end_at": "2020-02-25T19:00:00.000+02:00",
            "created_at": "2020-02-23T15:17:13.000+02:00",
            "updated_at": "2020-02-23T15:17:13.000+02:00",
            "entity_id": 608,
            "individual_id": 23645,
            "created_by": "اسلام القاضى",
            "time_from": null,
            "time_to": null,
            "current_reservations_no": 0,
            "max_reservations_no": "21",
            "occurance_id": "4471",
            "no_of_patients": "",
            "time_slot_interval": "",
            "repeatition_interval": null,
            "repeating_until_date": null,
            "time_slots_count": null,
            "repetition_interval_no": null,
            "is_public": true
        },
        {
            "id": 4474,
            "name": "",
            "start_at": "2020-02-26T17:00:00.000+02:00",
            "end_at": "2020-02-26T19:00:00.000+02:00",
            "created_at": "2020-02-23T15:17:13.000+02:00",
            "updated_at": "2020-02-23T15:17:13.000+02:00",
            "entity_id": 608,
            "individual_id": 23645,
            "created_by": "اسلام القاضى",
            "time_from": null,
            "time_to": null,
            "current_reservations_no": 0,
            "max_reservations_no": "21",
            "occurance_id": "4471",
            "no_of_patients": "",
            "time_slot_interval": "",
            "repeatition_interval": null,
            "repeating_until_date": null,
            "time_slots_count": null,
            "repetition_interval_no": null,
            "is_public": true
        },
        {
            "id": 4475,
            "name": "",
            "start_at": "2020-02-27T17:00:00.000+02:00",
            "end_at": "2020-02-27T19:00:00.000+02:00",
            "created_at": "2020-02-23T15:17:13.000+02:00",
            "updated_at": "2020-02-23T15:17:13.000+02:00",
            "entity_id": 608,
            "individual_id": 23645,
            "created_by": "اسلام القاضى",
            "time_from": null,
            "time_to": null,
            "current_reservations_no": 0,
            "max_reservations_no": "21",
            "occurance_id": "4471",
            "no_of_patients": "",
            "time_slot_interval": "",
            "repeatition_interval": null,
            "repeating_until_date": null,
            "time_slots_count": null,
            "repetition_interval_no": null,
            "is_public": true
        },
        {
            "id": 4477,
            "name": "",
            "start_at": "2020-02-24T15:20:00.000+02:00",
            "end_at": "2020-02-24T22:40:00.000+02:00",
            "created_at": "2020-02-24T14:02:31.000+02:00",
            "updated_at": "2020-02-24T14:02:31.000+02:00",
            "entity_id": 604,
            "individual_id": 23228,
            "created_by": "اسلام القاضى",
            "time_from": null,
            "time_to": null,
            "current_reservations_no": 0,
            "max_reservations_no": "8",
            "occurance_id": "4477",
            "no_of_patients": "",
            "time_slot_interval": "",
            "repeatition_interval": "day",
            "repeating_until_date": "2020-03-02",
            "time_slots_count": null,
            "repetition_interval_no": "2",
            "is_public": true
        },
        {
            "id": 4478,
            "name": "",
            "start_at": "2020-02-26T15:20:00.000+02:00",
            "end_at": "2020-02-26T22:40:00.000+02:00",
            "created_at": "2020-02-24T14:02:31.000+02:00",
            "updated_at": "2020-02-24T14:02:31.000+02:00",
            "entity_id": 604,
            "individual_id": 23228,
            "created_by": "اسلام القاضى",
            "time_from": null,
            "time_to": null,
            "current_reservations_no": 0,
            "max_reservations_no": "8",
            "occurance_id": "4477",
            "no_of_patients": "",
            "time_slot_interval": "",
            "repeatition_interval": null,
            "repeating_until_date": null,
            "time_slots_count": null,
            "repetition_interval_no": null,
            "is_public": true
        },
        {
            "id": 4479,
            "name": "",
            "start_at": "2020-02-28T15:20:00.000+02:00",
            "end_at": "2020-02-28T22:40:00.000+02:00",
            "created_at": "2020-02-24T14:02:31.000+02:00",
            "updated_at": "2020-02-24T14:02:31.000+02:00",
            "entity_id": 604,
            "individual_id": 23228,
            "created_by": "اسلام القاضى",
            "time_from": null,
            "time_to": null,
            "current_reservations_no": 0,
            "max_reservations_no": "8",
            "occurance_id": "4477",
            "no_of_patients": "",
            "time_slot_interval": "",
            "repeatition_interval": null,
            "repeating_until_date": null,
            "time_slots_count": null,
            "repetition_interval_no": null,
            "is_public": true
        },
        {
            "id": 4480,
            "name": "",
            "start_at": "2020-03-01T15:20:00.000+02:00",
            "end_at": "2020-03-01T22:40:00.000+02:00",
            "created_at": "2020-02-24T14:02:31.000+02:00",
            "updated_at": "2020-02-24T14:02:31.000+02:00",
            "entity_id": 604,
            "individual_id": 23228,
            "created_by": "اسلام القاضى",
            "time_from": null,
            "time_to": null,
            "current_reservations_no": 0,
            "max_reservations_no": "8",
            "occurance_id": "4477",
            "no_of_patients": "",
            "time_slot_interval": "",
            "repeatition_interval": null,
            "repeating_until_date": null,
            "time_slots_count": null,
            "repetition_interval_no": null,
            "is_public": true
        },
        {
            "id": 4481,
            "name": "",
            "start_at": "2020-02-24T14:15:00.000+02:00",
            "end_at": "2020-02-24T17:45:00.000+02:00",
            "created_at": "2020-02-24T14:04:03.000+02:00",
            "updated_at": "2020-02-24T14:04:03.000+02:00",
            "entity_id": 608,
            "individual_id": 23167,
            "created_by": "اسلام القاضى",
            "time_from": null,
            "time_to": null,
            "current_reservations_no": 0,
            "max_reservations_no": "20",
            "occurance_id": "4481",
            "no_of_patients": "",
            "time_slot_interval": "",
            "repeatition_interval": "day",
            "repeating_until_date": "2020-03-14",
            "time_slots_count": null,
            "repetition_interval_no": "3",
            "is_public": true
        },
      
        {
            "id": 4482,
            "name": "",
            "start_at": "2020-02-27T14:15:00.000+02:00",
            "end_at": "2020-02-27T17:45:00.000+02:00",
            "created_at": "2020-02-24T14:04:03.000+02:00",
            "updated_at": "2020-02-24T14:04:03.000+02:00",
            "entity_id": 608,
            "individual_id": 23167,
            "created_by": "اسلام القاضى",
            "time_from": null,
            "time_to": null,
            "current_reservations_no": 0,
            "max_reservations_no": "20",
            "occurance_id": "4481",
            "no_of_patients": "",
            "time_slot_interval": "",
            "repeatition_interval": null,
            "repeating_until_date": null,
            "time_slots_count": null,
            "repetition_interval_no": null,
            "is_public": true
        },
        {
            "id": 4483,
            "name": "",
            "start_at": "2020-03-01T14:15:00.000+02:00",
            "end_at": "2020-03-01T17:45:00.000+02:00",
            "created_at": "2020-02-24T14:04:03.000+02:00",
            "updated_at": "2020-02-24T14:04:03.000+02:00",
            "entity_id": 608,
            "individual_id": 23167,
            "created_by": "اسلام القاضى",
            "time_from": null,
            "time_to": null,
            "current_reservations_no": 0,
            "max_reservations_no": "20",
            "occurance_id": "4481",
            "no_of_patients": "",
            "time_slot_interval": "",
            "repeatition_interval": null,
            "repeating_until_date": null,
            "time_slots_count": null,
            "repetition_interval_no": null,
            "is_public": true
        },
        {
            "id": 4484,
            "name": "",
            "start_at": "2020-03-04T14:15:00.000+02:00",
            "end_at": "2020-03-04T17:45:00.000+02:00",
            "created_at": "2020-02-24T14:04:03.000+02:00",
            "updated_at": "2020-02-24T14:04:03.000+02:00",
            "entity_id": 608,
            "individual_id": 23167,
            "created_by": "اسلام القاضى",
            "time_from": null,
            "time_to": null,
            "current_reservations_no": 0,
            "max_reservations_no": "20",
            "occurance_id": "4481",
            "no_of_patients": "",
            "time_slot_interval": "",
            "repeatition_interval": null,
            "repeating_until_date": null,
            "time_slots_count": null,
            "repetition_interval_no": null,
            "is_public": true
        },
        {
            "id": 49984,
            "name": "",
            "start_at": "2020-03-05T14:15:00.000+02:00",
            "end_at": "2020-03-05T17:45:00.000+02:00",
            "created_at": "2020-02-24T14:04:03.000+02:00",
            "updated_at": "2020-02-24T14:04:03.000+02:00",
            "entity_id": 608,
            "individual_id": 23167,
            "created_by": "اسلام القاضى",
            "time_from": null,
            "time_to": null,
            "current_reservations_no": 0,
            "max_reservations_no": "20",
            "occurance_id": "4481",
            "no_of_patients": "",
            "time_slot_interval": "",
            "repeatition_interval": null,
            "repeating_until_date": null,
            "time_slots_count": null,
            "repetition_interval_no": null,
            "is_public": true
        },
        {
            "id": 4488,
            "name": "",
            "start_at": "2020-02-27T01:00:00.000+02:00",
            "end_at": "2020-02-27T20:00:00.000+02:00",
            "created_at": "2020-02-24T14:05:59.000+02:00",
            "updated_at": "2020-02-24T14:05:59.000+02:00",
            "entity_id": 609,
            "individual_id": 23232,
            "created_by": "اسلام القاضى",
            "time_from": null,
            "time_to": null,
            "current_reservations_no": 0,
            "max_reservations_no": "41",
            "occurance_id": "4488",
            "no_of_patients": "",
            "time_slot_interval": "",
            "repeatition_interval": "day",
            "repeating_until_date": "2020-03-04",
            "time_slots_count": null,
            "repetition_interval_no": "1",
            "is_public": true
        },
        {
            "id": 4489,
            "name": "",
            "start_at": "2020-02-28T01:00:00.000+02:00",
            "end_at": "2020-02-28T20:00:00.000+02:00",
            "created_at": "2020-02-24T14:05:59.000+02:00",
            "updated_at": "2020-02-24T14:05:59.000+02:00",
            "entity_id": 609,
            "individual_id": 23232,
            "created_by": "اسلام القاضى",
            "time_from": null,
            "time_to": null,
            "current_reservations_no": 0,
            "max_reservations_no": "41",
            "occurance_id": "4488",
            "no_of_patients": "",
            "time_slot_interval": "",
            "repeatition_interval": null,
            "repeating_until_date": null,
            "time_slots_count": null,
            "repetition_interval_no": null,
            "is_public": true
        },
        {
            "id": 4490,
            "name": "",
            "start_at": "2020-02-29T01:00:00.000+02:00",
            "end_at": "2020-02-29T20:00:00.000+02:00",
            "created_at": "2020-02-24T14:05:59.000+02:00",
            "updated_at": "2020-02-24T14:05:59.000+02:00",
            "entity_id": 609,
            "individual_id": 23232,
            "created_by": "اسلام القاضى",
            "time_from": null,
            "time_to": null,
            "current_reservations_no": 0,
            "max_reservations_no": "41",
            "occurance_id": "4488",
            "no_of_patients": "",
            "time_slot_interval": "",
            "repeatition_interval": null,
            "repeating_until_date": null,
            "time_slots_count": null,
            "repetition_interval_no": null,
            "is_public": true
        },
        {
            "id": 4491,
            "name": "",
            "start_at": "2020-03-01T01:00:00.000+02:00",
            "end_at": "2020-03-01T20:00:00.000+02:00",
            "created_at": "2020-02-24T14:05:59.000+02:00",
            "updated_at": "2020-02-24T14:05:59.000+02:00",
            "entity_id": 609,
            "individual_id": 23232,
            "created_by": "اسلام القاضى",
            "time_from": null,
            "time_to": null,
            "current_reservations_no": 0,
            "max_reservations_no": "41",
            "occurance_id": "4488",
            "no_of_patients": "",
            "time_slot_interval": "",
            "repeatition_interval": null,
            "repeating_until_date": null,
            "time_slots_count": null,
            "repetition_interval_no": null,
            "is_public": true
        },
        {
            "id": 4481,
            "name": "",
            "start_at": "2020-03-07T14:15:00.000+02:00",
            "end_at": "2020-03-07T17:45:00.000+02:00",
            "created_at": "2020-02-24T14:04:03.000+02:00",
            "updated_at": "2020-02-24T14:04:03.000+02:00",
            "entity_id": 608,
            "individual_id": 23167,
            "created_by": "اسلام القاضى",
            "time_from": null,
            "time_to": null,
            "current_reservations_no": 0,
            "max_reservations_no": "20",
            "occurance_id": "4481",
            "no_of_patients": "",
            "time_slot_interval": "",
            "repeatition_interval": "day",
            "repeating_until_date": "2020-03-14",
            "time_slots_count": null,
            "repetition_interval_no": "3",
            "is_public": true
        }
    ]
}